<svg xmlns="http://www.w3.org/2000/svg" width="53.48" height="33.805" viewBox="0 0 53.48 33.805">
  <g id="Groupe_50" data-name="Groupe 50" transform="translate(-361.698 -324.343)">
    <g id="Groupe_46" data-name="Groupe 46">
      <path id="Tracé_54" data-name="Tracé 54" d="M384.76,339.706v-4.943a6.5,6.5,0,0,1,12.975,0v4.943" fill="none" stroke="#8f9396" stroke-linecap="round" stroke-linejoin="round" stroke-width="1.5"/>
      <path id="Tracé_55" data-name="Tracé 55" d="M401.107,342.005v-7.556a9.873,9.873,0,0,0-19.719,0v2.4" fill="none" stroke="#8f9396" stroke-linecap="round" stroke-linejoin="round" stroke-width="1.5"/>
      <path id="Tracé_56" data-name="Tracé 56" d="M394.241,339.706v-4.344a3,3,0,0,0-5.987,0v4.344" fill="none" stroke="#8f9396" stroke-linecap="round" stroke-linejoin="round" stroke-width="1.5"/>
      <path id="Tracé_57" data-name="Tracé 57" d="M388.254,341.873v-6.511a3,3,0,0,1,5.987,0v6.511" fill="none" stroke="#8f9396" stroke-linecap="round" stroke-linejoin="round" stroke-width="1.5"/>
      <path id="Tracé_58" data-name="Tracé 58" d="M397.735,341.873v-7.11a6.5,6.5,0,0,0-12.975,0v7.373" fill="none" stroke="#8f9396" stroke-linecap="round" stroke-linejoin="round" stroke-width="1.5"/>
    </g>
    <line id="Ligne_55" data-name="Ligne 55" x2="21.431" transform="translate(383.207 342.454)" fill="none" stroke="#8f9396" stroke-linecap="round" stroke-linejoin="round" stroke-width="1.5"/>
    <line id="Ligne_56" data-name="Ligne 56" x1="36.977" transform="translate(377.451 357.066)" fill="none" stroke="#8f9396" stroke-linecap="round" stroke-linejoin="round" stroke-width="1.5"/>
    <line id="Ligne_57" data-name="Ligne 57" x2="20.268" transform="translate(384.418 348.34)" fill="none" stroke="#8f9396" stroke-linecap="round" stroke-linejoin="round" stroke-width="1.5"/>
    <line id="Ligne_58" data-name="Ligne 58" x2="17.738" transform="translate(383.394 337.677)" fill="none" stroke="#8f9396" stroke-linecap="round" stroke-linejoin="round" stroke-width="1.5"/>
    <line id="Ligne_59" data-name="Ligne 59" y2="6.451" transform="translate(385.729 350.578)" fill="none" stroke="#8f9396" stroke-linecap="round" stroke-linejoin="round" stroke-width="1.5"/>
    <path id="Tracé_59" data-name="Tracé 59" d="M397.182,357.029v-6.451h3.159v6.451" fill="none" stroke="#8f9396" stroke-linecap="round" stroke-linejoin="round" stroke-width="1.5"/>
    <path id="Tracé_60" data-name="Tracé 60" d="M389.876,357.029v-6.451h3.159v6.451" fill="none" stroke="#8f9396" stroke-linecap="round" stroke-linejoin="round" stroke-width="1.5"/>
    <g id="Groupe_47" data-name="Groupe 47">
      <path id="Tracé_61" data-name="Tracé 61" d="M370.416,356.95" fill="none" stroke="#3792fd" stroke-miterlimit="10" stroke-width="1.5"/>
    </g>
    <g id="Groupe_48" data-name="Groupe 48">
      <path id="Tracé_62" data-name="Tracé 62" d="M404.906,356.95V338.915h7.109V356.95" fill="none" stroke="#8f9396" stroke-linecap="round" stroke-linejoin="round" stroke-width="1.5"/>
    </g>
    <g id="Groupe_49" data-name="Groupe 49">
      <circle id="Ellipse_12" data-name="Ellipse 12" cx="7.273" cy="7.273" r="7.273" transform="translate(366.857 339.384)" stroke-width="1.5" stroke="#3792fd" stroke-linecap="round" stroke-linejoin="round" fill="none"/>
      <line id="Ligne_60" data-name="Ligne 60" x1="6.013" y2="5.516" transform="translate(362.757 351.573)" fill="none" stroke="#3792fd" stroke-linecap="round" stroke-linejoin="round" stroke-width="1.5"/>
    </g>
  </g>
</svg>
