<svg xmlns="http://www.w3.org/2000/svg" width="45.379" height="32.499" viewBox="0 0 45.379 32.499">
  <g id="Groupe_41" data-name="Groupe 41" transform="translate(-195.459 -326.567)">
    <g id="Groupe_39" data-name="Groupe 39">
      <path id="Tracé_45" data-name="Tracé 45" d="M208.044,357.039a1.277,1.277,0,0,0,1.277,1.277h29.491a1.277,1.277,0,0,0,1.277-1.277v-24.91a1.277,1.277,0,0,0-1.277-1.277h-2.5" fill="none" stroke="#8f9396" stroke-linecap="round" stroke-linejoin="round" stroke-width="1.5"/>
      <path id="Tracé_46" data-name="Tracé 46" d="M211.626,330.852h-2.305a1.277,1.277,0,0,0-1.277,1.277v4.635" fill="none" stroke="#8f9396" stroke-linecap="round" stroke-linejoin="round" stroke-width="1.5"/>
      <line id="Ligne_50" data-name="Ligne 50" x1="9.916" transform="translate(219.139 330.852)" fill="none" stroke="#8f9396" stroke-linecap="round" stroke-linejoin="round" stroke-width="1.5"/>
      <line id="Ligne_51" data-name="Ligne 51" x2="21.967" transform="translate(217.877 338.555)" fill="none" stroke="#8f9396" stroke-linecap="round" stroke-linejoin="round" stroke-width="1.5"/>
      <g id="Groupe_38" data-name="Groupe 38">
        <rect id="Rectangle_16" data-name="Rectangle 16" width="2.776" height="6.875" rx="1.388" transform="translate(213.975 327.317)" stroke-width="1.5" stroke="#8f9396" stroke-linecap="round" stroke-linejoin="round" fill="none"/>
        <rect id="Rectangle_17" data-name="Rectangle 17" width="2.776" height="6.875" rx="1.388" transform="translate(231.382 327.317)" stroke-width="1.5" stroke="#8f9396" stroke-linecap="round" stroke-linejoin="round" fill="none"/>
      </g>
    </g>
    <g id="Groupe_40" data-name="Groupe 40">
      <circle id="Ellipse_10" data-name="Ellipse 10" cx="7.273" cy="7.273" r="7.273" transform="translate(200.066 339.384)" fill="none" stroke="#3792fd" stroke-linecap="round" stroke-miterlimit="10" stroke-width="1.5"/>
      <line id="Ligne_52" data-name="Ligne 52" x1="6.013" y2="5.516" transform="translate(195.967 351.573)" fill="none" stroke="#3792fd" stroke-miterlimit="10" stroke-width="1.5"/>
    </g>
    <rect id="Rectangle_18" data-name="Rectangle 18" width="6.894" height="6.894" transform="translate(229.111 343.402)" stroke-width="1.5" stroke="#8f9396" stroke-linecap="round" stroke-linejoin="round" fill="none"/>
  </g>
</svg>
