<?xml version="1.0" encoding="utf-8"?>
<!-- Generator: Adobe Illustrator 24.0.1, SVG Export Plug-In . SVG Version: 6.00 Build 0)  -->
<svg version="1.1" id="Calque_1" xmlns="http://www.w3.org/2000/svg" xmlns:xlink="http://www.w3.org/1999/xlink" x="0px" y="0px"
	 viewBox="0 0 98.4 98.4" style="enable-background:new 0 0 98.4 98.4;" xml:space="preserve">
<style type="text/css">
	.st0{fill:none;}
	.st1{fill:#1B568D;}
	.st2{fill:#3792FD;}
</style>
<title>Fichier 7</title>
<g id="Calque_2_1_">
	<g id="Calque_2-2">
		<rect y="0" class="st0" width="98.4" height="98.4"/>
	</g>
</g>
<g>
	<path class="st1" d="M69.9,85.6H28.5c-3,0-5.5-2.5-5.5-5.5V43.8c0-3,2.5-5.5,5.5-5.5h41.5c3,0,5.5,2.5,5.5,5.5v36.2
		C75.4,83.1,73,85.6,69.9,85.6z M28.5,41.3c-1.4,0-2.5,1.1-2.5,2.5v36.2c0,1.4,1.1,2.5,2.5,2.5h41.5c1.4,0,2.5-1.1,2.5-2.5V43.8
		c0-1.4-1.1-2.5-2.5-2.5H28.5z"/>
	<path class="st1" d="M66.9,39.8h-3v-9.3c0-8.1-6.6-14.7-14.7-14.7c-8.1,0-14.7,6.6-14.7,14.7h-3c0-9.8,7.9-17.7,17.7-17.7
		c9.8,0,17.7,7.9,17.7,17.7V39.8z"/>
	<path class="st2" d="M49.2,69.9c-4.4,0-7.9-3.6-7.9-7.9s3.6-7.9,7.9-7.9c4.4,0,7.9,3.6,7.9,7.9S53.6,69.9,49.2,69.9z M49.2,57
		c-2.7,0-4.9,2.2-4.9,4.9c0,2.7,2.2,4.9,4.9,4.9c2.7,0,4.9-2.2,4.9-4.9C54.1,59.2,51.9,57,49.2,57z"/>
</g>
</svg>
