<?xml version="1.0" encoding="utf-8"?>
<!-- Generator: Adobe Illustrator 22.1.0, SVG Export Plug-In . SVG Version: 6.00 Build 0)  -->
<svg version="1.1" id="IPEX_LOGO" xmlns="http://www.w3.org/2000/svg" xmlns:xlink="http://www.w3.org/1999/xlink" x="0px" y="0px"
	 viewBox="0 0 578.8 145" style="enable-background:new 0 0 578.8 145;" xml:space="preserve">
<style type="text/css">
	.st0{fill:#3792FD;}
	.st1{fill:#F9F9F9;}
	.st2{fill:url(#SVGID_1_);}
	.st3{fill:#212C2F;}
	.st4{fill:#161C1E;}
	.st5{fill:#111111;}
</style>
<path id="Arrows" class="st0" d="M461.1,92.6c0.3,0.4,0.3,1-0.1,1.3l-40,37.9l19.8,11.3c0.4,0.2,0.6,0.7,0.5,1.1s-0.5,0.7-1,0.7
	l-46.9,0c0,0-0.1,0-0.1,0c-0.2,0-0.4-0.1-0.6-0.2c0,0,0,0,0,0c-0.2-0.1-0.3-0.3-0.3-0.5c-0.1-0.2-0.1-0.5,0-0.7L405,98.5
	c0.1-0.4,0.5-0.7,1-0.7c0.5,0,0.8,0.3,1,0.8l5.5,22.2l47.3-28.3C460.2,92.1,460.8,92.2,461.1,92.6z M578.7,0.7
	c-0.1-0.2-0.2-0.4-0.4-0.5c0,0,0,0-0.1,0C578.1,0,577.9,0,577.7,0l-46.9,0c-0.5,0-0.9,0.3-1,0.7s0.1,0.9,0.5,1.1l19.8,11.3L510,51
	c-0.4,0.4-0.4,0.9-0.1,1.3c0.2,0.3,0.5,0.4,0.8,0.4c0.2,0,0.4,0,0.5-0.1l47.3-28.3l5.5,22.2c0.1,0.4,0.5,0.8,1,0.8
	c0.5,0,0.9-0.3,1-0.7l12.7-45.1C578.8,1.2,578.8,0.9,578.7,0.7z"/>
<path id="X" class="st1" d="M548.9,108.6l-84-71.3c-1.5-1.3-0.6-3.8,1.4-3.8h15.3V23.2h-78.3v10.2h11.4c2.6,0,5.2,0.9,7.2,2.6
	l84,71.3c1.5,1.3,0.6,3.8-1.4,3.8h-17.8v10.2H565v-10.2h-8.9C553.5,111.2,550.9,110.3,548.9,108.6z"/>
<path id="E" class="st1" d="M380.8,50.7V23.2H374h-3.5h-2.2h-26.8H238v10.2h24.5c1.3,0,2.3,1,2.3,2.3v70.6c0,1.2-0.9,2.2-2,2.3
	l-24.8,2.5v10.2h103.5h26.8h2.2h3.5h6.8V94.1h-10.2v1.5c0,7.5-5.3,13.8-12.3,15.3l-58.7-2.2c-1.2-0.1-2-1.1-2-2.3V75.9h36.9
	c0.4,0,0.8,0.1,1.3,0.1c8.5-0.1,9.5,7.4,13.7,14.9h10.2V50.7h-10.2c-4.2,7.6-6,14.9-13.7,14.9c-0.4,0-0.9,0.1-1.3,0.1h-36.9V35.8
	c0-1.3,1-2.3,2.3-2.3h41.8h13.3c8.7,0,15.7,7,15.7,15.7v1.5H380.8z"/>
<path id="P" class="st1" d="M170.4,23.2H94.2v10.2h19.5c1.3,0,2.3,1,2.3,2.3v70.6c0,1.2-0.9,2.2-2,2.3l-18.8,2.5v10.2h75.2v-10.2
	l-19.8-2.5c-1.2-0.1-2-1.1-2-2.3l0-70.6c0-1.3,1-2.3,2.3-2.3h18.6c12.2-0.2,21.2,7.8,21.2,16.8s-8.1,17.1-18.5,17.1
	s-15.8-0.9-15.8-0.9v10.1c0,0,11.8,3.7,27,3.7c15,0,44-7,44-29.2S202.6,23.2,170.4,23.2z"/>
<path id="I" class="st1" d="M76.2,33.5V23.2H0v10.2h19.5c1.3,0,2.3,1,2.3,2.3v70.6c0,1.2-0.9,2.2-2,2.3L0,111.2v10.2h76.2v-10.2
	l-19.8-2.5c-1.2-0.1-2-1.1-2-2.3l0-70.6c0-1.3,1-2.3,2.3-2.3H76.2z"/>
<linearGradient id="SVGID_1_" gradientUnits="userSpaceOnUse" x1="283.5" y1="-60.7622" x2="283.5" y2="-205.7622">
	<stop  offset="0" style="stop-color:#212C2F"/>
	<stop  offset="1" style="stop-color:#526572"/>
</linearGradient>
<rect x="214" y="-205.8" class="st2" width="139" height="145"/>
<rect x="-121.2" y="370.2" class="st3" width="139" height="145"/>
<rect x="76.2" y="361.2" class="st4" width="139" height="145"/>
<rect x="584.8" y="-201.8" class="st5" width="139" height="145"/>
</svg>
