<?xml version="1.0" encoding="utf-8"?>
<!-- Generator: Adobe Illustrator 23.0.3, SVG Export Plug-In . SVG Version: 6.00 Build 0)  -->
<svg version="1.1" id="Calque_2" xmlns="http://www.w3.org/2000/svg" xmlns:xlink="http://www.w3.org/1999/xlink" x="0px" y="0px"
	 viewBox="0 0 200 200" style="enable-background:new 0 0 200 200;" xml:space="preserve">
<style type="text/css">
	.st0{fill:#19568E;}
	.st1{fill:none;stroke:#19568E;stroke-width:4;stroke-miterlimit:10;}
</style>
<g>
	<path class="st0" d="M159.9,50c6.1,0,11,4.9,11,11v88.6c0,6.1-4.9,11-11,11H40c-6.1,0-11-4.9-11-11V61c0-6.1,4.9-11,11-11H159.9
		 M159.9,46H40c-8.3,0-15,6.7-15,15v88.6c0,8.3,6.7,15,15,15h119.9c8.3,0,15-6.7,15-15V61C174.9,52.7,168.2,46,159.9,46L159.9,46z"
		/>
</g>
<path class="st1" d="M28.1,56l63.1,52.3c5.2,4.1,12.5,4.1,17.7,0L170.9,56"/>
<path class="st1" d="M100,122.2L100,122.2c-10.4,0-18.8-8.4-18.8-18.8v0c0-10.4,8.4-18.8,18.8-18.8h0c10.4,0,18.8,8.4,18.8,18.8v0
	C118.7,113.8,110.3,122.2,100,122.2z"/>
</svg>
