<?xml version="1.0" encoding="utf-8"?>
<!-- Generator: Adobe Illustrator 23.0.4, SVG Export Plug-In . SVG Version: 6.00 Build 0)  -->
<svg version="1.1" id="Calque_1" xmlns="http://www.w3.org/2000/svg" xmlns:xlink="http://www.w3.org/1999/xlink" x="0px" y="0px"
	 viewBox="0 0 400 400" style="enable-background:new 0 0 400 400;" xml:space="preserve">
<style type="text/css">
	.st0{fill:#19568E;}
</style>
<path class="st0" d="M331.3,325.4H173.5c-7.6,0-13.8-6.1-13.8-13.7c0-2.4,2-4.4,4.4-4.4s4.4,2,4.4,4.4c0,2.7,2.3,5,5,5h157.9
	c2.8,0,5-2.2,5-5V112.2c0-2.7-2.3-5-5-5c-2.4,0-4.4-2-4.4-4.4s2-4.4,4.4-4.4c7.6,0,13.8,6.1,13.8,13.7v199.5
	C345.1,319.3,338.9,325.4,331.3,325.4z M215.4,271.6c-0.8,0.9-2,1.3-3.1,1.3c-0.6,0-1.1-0.1-1.6-0.3l-30.9-12.7
	c-12.8,8.7-28.2,13.7-44.8,13.7c-44.2,0-80.1-35.9-80.1-80.1s35.9-80.1,80.1-80.1s80.1,35.9,80.1,80.1c0,16.1-4.8,31.1-13,43.6
	l14.1,29.6C216.9,268.4,216.6,270.3,215.4,271.6z M203.5,260.4l-10.5-22c-0.1-0.3-0.2-0.6-0.3-0.9L192,236c0.4-0.5,0.7-1,1-1.5
	c0.2-0.4,0.4-0.7,0.7-1c7.8-11.4,12.3-25.2,12.3-40c0-39.3-31.9-71.2-71.2-71.2s-71.2,31.9-71.2,71.2s31.9,71.2,71.2,71.2
	c15.2,0,29.3-4.8,40.8-12.9c0.3-0.3,0.7-0.5,1-0.7c0.6-0.5,1.3-0.9,1.9-1.4l8.9,4.1l0,0L203.5,260.4z M154.5,238.3h-41.1
	c-2.4,0-2.2-1.9-2.2-4.2c0-2.3,1.9-4.2,4.2-4.2h16.4v-32.7h-16.4c-2.4,0-4.2-1.9-4.2-4.2c0-2.3,1.9-4.2,4.2-4.2h20.6
	c2.4,0,4.2,1.9,4.2,4.2v36.8h16.4c2.4,0,4.2,1.9,4.2,4.2C160.7,236.3,156.9,238.3,154.5,238.3L154.5,238.3z M120.5,158.9
	c0-7.6,6.3-13.9,13.9-13.9c7.6,0,13.9,6.3,13.9,13.9c0,7.6-6.2,13.9-13.9,13.9S120.5,166.5,120.5,158.9z M128.6,158.9
	c0,3.2,2.6,5.8,5.8,5.8s5.8-2.6,5.8-5.8c0-3.2-2.6-5.8-5.8-5.8C131.2,153,128.6,155.7,128.6,158.9z M293.3,133.5h-81.2
	c-2.3,0-4.1,2-4.1,4.4s1.8,4.4,4.1,4.4h81.2c2.3,0,4.1-2,4.1-4.4S295.6,133.5,293.3,133.5z M293.3,166.2h-65.9c-2.3,0-4.1,2-4.1,4.4
	s1.8,4.4,4.1,4.4h65.9c2.3,0,4.1-2,4.1-4.4C297.5,168.1,295.6,166.2,293.3,166.2z M293.3,198.9h-63.7c-2.3,0-4.1,2-4.1,4.4
	s1.8,4.4,4.1,4.4h63.7c2.3,0,4.1-2,4.1-4.4C297.5,200.9,295.6,198.9,293.3,198.9z M240.6,231.6h-19.7c-2.6,0-4.7,2-4.7,4.4
	s2.1,4.4,4.7,4.4h19.7c2.6,0,4.7-2,4.7-4.4S243.2,231.6,240.6,231.6z M307.3,74.6H149.5c-7.6,0-13.8,6.1-13.8,13.7v16.9
	c0,2.4,2,4.4,4.4,4.4s4.4-2,4.4-4.4v-17c0-2.7,2.3-5,5-5h157.9c2.8,0,5,2.2,5,5v199.5c0,2.7-2.3,5-5,5H149.5c-2.8,0-5-2.2-5-5v-6.1
	c0-2.4-2-4.4-4.4-4.4s-4.4,2-4.4,4.4v6.1c0,7.5,6.2,13.7,13.8,13.7h157.9c7.6,0,13.8-6.1,13.8-13.7V88.2
	C321.1,80.7,314.9,74.6,307.3,74.6z"/>
</svg>
