<?xml version="1.0" encoding="utf-8"?>
<!-- Generator: Adobe Illustrator 22.1.0, SVG Export Plug-In . SVG Version: 6.00 Build 0)  -->
<svg version="1.1" id="Calque_1" xmlns="http://www.w3.org/2000/svg" xmlns:xlink="http://www.w3.org/1999/xlink" x="0px" y="0px"
	 viewBox="0 0 200 200" style="enable-background:new 0 0 200 200;" xml:space="preserve">
<style type="text/css">
	.st0{fill:#19568E;}
</style>
<g>
	<path class="st0" d="M163.1,45.9h-8.9v-3.4c0-3.9-3.2-7.1-7.1-7.1c-3.9,0-7.1,3.2-7.1,7.1V53c0,3.9,3.2,7.1,7.1,7.1
		c3.9,0,7-3.2,7.1-7.1v-3.4h8.9c4.6,0,8.3,3.4,8.3,7.7v20H28.7v-20c0-4.2,3.7-7.7,8.3-7.7h9V53c0,3.9,3.2,7.1,7.1,7.1
		c3.9,0,7-3.2,7.1-7.1V42.6c0-3.9-3.2-7.1-7.1-7.1s-7.1,3.2-7.1,7.1v3.4h-9C30.4,45.9,25,51,25,57.3v95.9c0,6.3,5.4,11.4,11.9,11.4
		h126.1c6.6,0,11.9-5.1,11.9-11.4V57.3C175,51,169.6,45.9,163.1,45.9z M150.4,53c0,1.9-1.5,3.4-3.4,3.4c-1.9,0-3.4-1.5-3.4-3.4V42.6
		c0-1.9,1.5-3.4,3.4-3.4c1.9,0,3.4,1.5,3.4,3.4V53z M49.6,42.6c0-1.9,1.5-3.4,3.4-3.4c1.9,0,3.4,1.5,3.4,3.4V53
		c0,1.9-1.6,3.4-3.4,3.4c-1.9,0-3.4-1.5-3.4-3.4V42.6z M163.1,160.8H36.9c-4.6,0-8.3-3.4-8.3-7.7V81h142.6v72.2
		C171.3,157.4,167.6,160.8,163.1,160.8z"/>
	<path class="st0" d="M74.5,98.2H52.4c-3.6,0-6.5,2.9-6.5,6.5v22.1c0,3.6,2.9,6.5,6.5,6.5h22.1c3.6,0,6.5-2.9,6.5-6.5v-22.1
		C80.9,101.1,78,98.2,74.5,98.2z M77.2,126.8c0,1.5-1.2,2.8-2.8,2.8H52.4c-1.5,0-2.8-1.2-2.8-2.8v-22.1c0-1.5,1.2-2.8,2.8-2.8h22.1
		c1.5,0,2.8,1.2,2.8,2.8V126.8z"/>
	<path class="st0" d="M68.7,49.6h62.7c1,0,1.8-0.8,1.8-1.8c0-1-0.8-1.8-1.8-1.8H68.7c-1,0-1.8,0.8-1.8,1.8
		C66.8,48.8,67.6,49.6,68.7,49.6z"/>
	<path class="st0" d="M152.2,108.6H100c-1,0-1.8,0.8-1.8,1.8s0.8,1.8,1.8,1.8h52.2c1,0,1.8-0.8,1.8-1.8S153.3,108.6,152.2,108.6z"/>
	<path class="st0" d="M152.2,119.1H100c-1,0-1.8,0.8-1.8,1.8c0,1,0.8,1.8,1.8,1.8h52.2c1,0,1.8-0.8,1.8-1.8
		C154.1,119.9,153.3,119.1,152.2,119.1z"/>
	<path class="st0" d="M120.9,129.5H100c-1,0-1.8,0.8-1.8,1.8s0.8,1.8,1.8,1.8h20.9c1,0,1.8-0.8,1.8-1.8S121.9,129.5,120.9,129.5z"/>
	<path class="st0" d="M152.2,98.2H100c-1,0-1.8,0.8-1.8,1.8c0,1,0.8,1.8,1.8,1.8h52.2c1,0,1.8-0.8,1.8-1.8
		C154.1,99,153.3,98.2,152.2,98.2z"/>
</g>
</svg>
