<?xml version="1.0" encoding="utf-8"?>
<!-- Generator: Adobe Illustrator 23.0.4, SVG Export Plug-In . SVG Version: 6.00 Build 0)  -->
<svg version="1.1" id="Calque_1" xmlns="http://www.w3.org/2000/svg" xmlns:xlink="http://www.w3.org/1999/xlink" x="0px" y="0px"
	 viewBox="0 0 84 54" style="enable-background:new 0 0 84 54;" xml:space="preserve">
<style type="text/css">
	.st0{fill:#3792FD;}
	.st1{fill:#999999;}
	.st2{fill:#FFFFFF;}
</style>
<path class="st1" d="M28.4,52.2c-5.3,0-9.7-4.4-9.7-9.7V13.7c0-1.7,1.3-3,3-3h15.6c0.4,0,0.8,0.3,0.8,0.8v31
	C38.1,47.8,33.7,52.2,28.4,52.2z M21.6,12.3c-0.8,0-1.4,0.6-1.4,1.4v28.8c0,4.5,3.6,8.1,8.1,8.1s8.1-3.6,8.1-8.1V12.3H21.6z"/>
<path class="st1" d="M72.8,52H28.5c-0.4,0-0.8-0.3-0.8-0.8c0-0.4,0.3-0.8,0.8-0.8c4.5-0.1,8-3.7,8-8.1V4.8c0-1.7,1.3-3,3-3h39.9
	c1.7,0,3,1.3,3,3v5.3l0.2,32.2C82.5,47.7,78.1,52,72.8,52z M33.6,50.5h39.2c4.5,0,8.1-3.6,8.1-8.1l-0.2-32.2c0,0,0,0,0,0V4.8
	c0-0.8-0.6-1.4-1.4-1.4H39.5c-0.8,0-1.4,0.6-1.4,1.4v37.5C38.1,45.7,36.3,48.7,33.6,50.5z"/>
<path class="st1" d="M59.3,25.6H45.7c-0.4,0-0.8-0.3-0.8-0.8V11.5c0-0.4,0.3-0.8,0.8-0.8h13.6c0.4,0,0.8,0.3,0.8,0.8v13.3
	C60.1,25.2,59.8,25.6,59.3,25.6z M46.5,24h12V12.3h-12V24z"/>
<path class="st1" d="M77.2,16.7H63.7c-0.4,0-0.8-0.3-0.8-0.8s0.3-0.8,0.8-0.8h13.5c0.4,0,0.8,0.3,0.8,0.8S77.6,16.7,77.2,16.7z"/>
<path class="st1" d="M77.2,21.1H63.7c-0.4,0-0.8-0.3-0.8-0.8c0-0.4,0.3-0.8,0.8-0.8h13.5c0.4,0,0.8,0.3,0.8,0.8
	C78,20.7,77.6,21.1,77.2,21.1z"/>
<path class="st1" d="M77.2,25.6H63.7c-0.4,0-0.8-0.3-0.8-0.8c0-0.4,0.3-0.8,0.8-0.8h13.5c0.4,0,0.8,0.3,0.8,0.8
	C78,25.2,77.6,25.6,77.2,25.6z"/>
<path class="st1" d="M77.2,12.3H63.7c-0.4,0-0.8-0.3-0.8-0.8c0-0.4,0.3-0.8,0.8-0.8h13.5c0.4,0,0.8,0.3,0.8,0.8
	C78,11.9,77.6,12.3,77.2,12.3z"/>
<path class="st1" d="M77.2,30H46.1c-0.4,0-0.8-0.3-0.8-0.8c0-0.4,0.3-0.8,0.8-0.8h31.1c0.4,0,0.8,0.3,0.8,0.8
	C78,29.6,77.6,30,77.2,30z"/>
<path class="st1" d="M77.2,34.4H46.1c-0.4,0-0.8-0.3-0.8-0.8s0.3-0.8,0.8-0.8h31.1c0.4,0,0.8,0.3,0.8,0.8S77.6,34.4,77.2,34.4z"/>
<path class="st1" d="M77.2,38.9H46.1c-0.4,0-0.8-0.3-0.8-0.8s0.3-0.8,0.8-0.8h31.1c0.4,0,0.8,0.3,0.8,0.8S77.6,38.9,77.2,38.9z"/>
<path class="st1" d="M59.3,43.3H46.1c-0.4,0-0.8-0.3-0.8-0.8s0.3-0.8,0.8-0.8h13.3c0.4,0,0.8,0.3,0.8,0.8S59.8,43.3,59.3,43.3z"/>
<g>
	<circle class="st2" cx="19.1" cy="31.5" r="15.6"/>
	<path class="st0" d="M19.6,19C12.7,19,7,24.7,7,31.6c0,2.9,1,5.5,2.6,7.6L1,47l1.6,1.7l8.6-7.8c2.2,2,5.2,3.2,8.4,3.2
		c6.9,0,12.6-5.6,12.6-12.6C32.2,24.7,26.6,19,19.6,19z M19.6,41.9c-5.6,0-10.2-4.6-10.2-10.2c0-5.6,4.6-10.2,10.2-10.2
		c5.6,0,10.2,4.6,10.2,10.2C29.9,37.3,25.3,41.9,19.6,41.9z"/>
</g>
</svg>
