<svg xmlns="http://www.w3.org/2000/svg" width="48" height="36.432" viewBox="0 0 48 36.432">
  <g id="Groupe_61" data-name="Groupe 61" transform="translate(-455.056 -322.867)">
    <g id="Groupe_58" data-name="Groupe 58">
      <g id="Groupe_57" data-name="Groupe 57">
        <g id="Groupe_54" data-name="Groupe 54">
          <g id="Groupe_51" data-name="Groupe 51">
            <path id="Tracé_63" data-name="Tracé 63" d="M474.991,350.76a6.047,6.047,0,0,1,2.492,4.882v2.573" fill="none" stroke="#8f9396" stroke-linecap="round" stroke-linejoin="round" stroke-width="1.5"/>
            <path id="Tracé_64" data-name="Tracé 64" d="M468.916,342.521a4.309,4.309,0,1,1,4.438,7.367" fill="none" stroke="#8f9396" stroke-linecap="round" stroke-linejoin="round" stroke-width="1.5"/>
          </g>
          <g id="Groupe_52" data-name="Groupe 52">
            <path id="Tracé_65" data-name="Tracé 65" d="M487.274,350.76a6.047,6.047,0,0,1,2.492,4.882v2.573" fill="none" stroke="#8f9396" stroke-linecap="round" stroke-linejoin="round" stroke-width="1.5"/>
            <path id="Tracé_66" data-name="Tracé 66" d="M477.547,358.215v-2.573a6.047,6.047,0,0,1,2.57-4.938" fill="none" stroke="#8f9396" stroke-linecap="round" stroke-linejoin="round" stroke-width="1.5"/>
            <circle id="Ellipse_13" data-name="Ellipse 13" cx="4.309" cy="4.309" r="4.309" transform="translate(479.348 341.752)" stroke-width="1.5" stroke="#8f9396" stroke-linecap="round" stroke-linejoin="round" fill="none"/>
          </g>
          <g id="Groupe_53" data-name="Groupe 53">
            <path id="Tracé_67" data-name="Tracé 67" d="M499.814,350.76a6.047,6.047,0,0,1,2.492,4.882v2.573" fill="none" stroke="#8f9396" stroke-linecap="round" stroke-linejoin="round" stroke-width="1.5"/>
            <path id="Tracé_68" data-name="Tracé 68" d="M490.087,358.215v-2.573a6.05,6.05,0,0,1,2.57-4.938" fill="none" stroke="#8f9396" stroke-linecap="round" stroke-linejoin="round" stroke-width="1.5"/>
            <circle id="Ellipse_14" data-name="Ellipse 14" cx="4.309" cy="4.309" r="4.309" transform="translate(491.888 341.752)" stroke-width="1.5" stroke="#8f9396" stroke-linecap="round" stroke-linejoin="round" fill="none"/>
          </g>
        </g>
        <g id="Groupe_55" data-name="Groupe 55">
          <path id="Tracé_69" data-name="Tracé 69" d="M487.4,332.625a6.049,6.049,0,0,1,2.491,4.883" fill="none" stroke="#8f9396" stroke-linecap="round" stroke-linejoin="round" stroke-width="1.5"/>
          <path id="Tracé_70" data-name="Tracé 70" d="M477.676,337.508a6.049,6.049,0,0,1,2.57-4.939" fill="none" stroke="#8f9396" stroke-linecap="round" stroke-linejoin="round" stroke-width="1.5"/>
          <circle id="Ellipse_15" data-name="Ellipse 15" cx="4.309" cy="4.309" r="4.309" transform="translate(479.477 323.617)" stroke-width="1.5" stroke="#8f9396" stroke-linecap="round" stroke-linejoin="round" fill="none"/>
        </g>
        <line id="Ligne_61" data-name="Ligne 61" x2="22.774" transform="translate(472.398 337.757)" fill="none" stroke="#8f9396" stroke-linecap="round" stroke-linejoin="round" stroke-width="1.5"/>
        <g id="Groupe_56" data-name="Groupe 56">
          <line id="Ligne_62" data-name="Ligne 62" y2="2.858" transform="translate(475.042 338.163)" fill="none" stroke="#8f9396" stroke-linecap="round" stroke-linejoin="round" stroke-width="1.5"/>
          <line id="Ligne_63" data-name="Ligne 63" y2="2.316" transform="translate(492.529 338.434)" fill="none" stroke="#8f9396" stroke-linecap="round" stroke-linejoin="round" stroke-width="1.5"/>
        </g>
      </g>
    </g>
    <g id="Groupe_59" data-name="Groupe 59">
      <circle id="Ellipse_16" data-name="Ellipse 16" cx="5.656" cy="5.656" r="5.656" transform="translate(459.304 344.471)" stroke-width="1.5" stroke="#3792fd" stroke-linecap="round" stroke-linejoin="round" fill="none"/>
      <line id="Ligne_64" data-name="Ligne 64" x1="4.676" y2="4.289" transform="translate(456.116 353.95)" fill="none" stroke="#3792fd" stroke-linecap="round" stroke-linejoin="round" stroke-width="1.5"/>
    </g>
    <g id="Groupe_60" data-name="Groupe 60">
      <path id="Tracé_71" data-name="Tracé 71" d="M475.384,333.412l-3.137-3.482V326H458.983v9.829h13.263V333.02Z" fill="none" stroke="#8f9396" stroke-linecap="round" stroke-linejoin="round" stroke-width="1.5"/>
      <line id="Ligne_65" data-name="Ligne 65" x2="7.558" transform="translate(461.836 329.419)" fill="none" stroke="#8f9396" stroke-linecap="round" stroke-linejoin="round" stroke-width="1.5"/>
      <line id="Ligne_66" data-name="Ligne 66" x2="5.633" transform="translate(461.907 332.331)" fill="none" stroke="#8f9396" stroke-linecap="round" stroke-linejoin="round" stroke-width="1.5"/>
    </g>
  </g>
</svg>
