<?xml version="1.0" encoding="utf-8"?>
<!-- Generator: Adobe Illustrator 23.0.4, SVG Export Plug-In . SVG Version: 6.00 Build 0)  -->
<svg version="1.1" id="Calque_1" xmlns="http://www.w3.org/2000/svg" xmlns:xlink="http://www.w3.org/1999/xlink" x="0px" y="0px"
	 viewBox="0 0 100 100" style="enable-background:new 0 0 100 100;" xml:space="preserve">
<style type="text/css">
	.st0{fill:#3792FD;}
	.st1{fill:#19568E;}
	.st2{fill:#FFFFFF;}
</style>
<g>
	<g>
		<path class="st0" d="M50.1,44.3c-6.3,0-11.5,5.1-11.5,11.5c0,2.6,0.9,5,2.4,7l-7.9,7.1l1.4,1.6l7.9-7.1c2,1.8,4.7,3,7.7,3
			c6.3,0,11.5-5.1,11.5-11.5C61.6,49.4,56.4,44.3,50.1,44.3z M50.1,65.1c-5.1,0-9.3-4.2-9.3-9.3c0-5.2,4.2-9.3,9.3-9.3
			c5.2,0,9.3,4.2,9.3,9.3C59.4,60.9,55.2,65.1,50.1,65.1z"/>
		<g>
			<path class="st1" d="M80.9,51H64.8c-0.5,0-0.9-0.4-0.9-0.9c0-0.5,0.4-0.9,0.9-0.9h16.1c0.5,0,0.9,0.4,0.9,0.9
				C81.8,50.6,81.4,51,80.9,51z"/>
			<path class="st1" d="M80.9,55.1H64.8c-0.5,0-0.9-0.4-0.9-0.9s0.4-0.9,0.9-0.9h16.1c0.5,0,0.9,0.4,0.9,0.9S81.4,55.1,80.9,55.1z"
				/>
			<path class="st1" d="M80.9,59.1H64.8c-0.5,0-0.9-0.4-0.9-0.9c0-0.5,0.4-0.9,0.9-0.9h16.1c0.5,0,0.9,0.4,0.9,0.9
				C81.8,58.7,81.4,59.1,80.9,59.1z"/>
			<path class="st1" d="M72.8,63.1h-8c-0.5,0-0.9-0.4-0.9-0.9c0-0.5,0.4-0.9,0.9-0.9h8c0.5,0,0.9,0.4,0.9,0.9
				C73.6,62.7,73.2,63.1,72.8,63.1z"/>
			<path class="st1" d="M80.9,47H64.8c-0.5,0-0.9-0.4-0.9-0.9c0-0.5,0.4-0.9,0.9-0.9h16.1c0.5,0,0.9,0.4,0.9,0.9
				C81.8,46.6,81.4,47,80.9,47z"/>
			<path class="st1" d="M85.2,75.2H56.5c-2.6,0-4.7-2.1-4.7-4.7c0-0.5,0.4-0.9,0.9-0.9s0.9,0.4,0.9,0.9c0,1.7,1.3,3,3,3h28.7
				c1.7,0,3-1.3,3-3V29.7c0-1.7-1.3-3-3-3h-20L53.5,38.3V42c0,0.5-0.4,0.9-0.9,0.9s-0.9-0.4-0.9-0.9v-4c0-0.2,0.1-0.4,0.3-0.6
				l12.1-12.1c0.2-0.2,0.4-0.3,0.6-0.3h20.4c2.6,0,4.7,2.1,4.7,4.7v40.8C89.9,73.1,87.8,75.2,85.2,75.2z"/>
			<path class="st1" d="M61.8,38.8h-9.1v-1.7h9.1c1,0,2.1-0.9,2.1-2.1v-9.1h1.7V35C65.6,37.1,63.9,38.8,61.8,38.8z"/>
			<path class="st1" d="M80.9,42.8H68.8c-0.5,0-0.9-0.4-0.9-0.9s0.4-0.9,0.9-0.9h12.1c0.5,0,0.9,0.4,0.9,0.9S81.4,42.8,80.9,42.8z"
				/>
		</g>
	</g>
	<g>
		<path class="st1" d="M40.3,36.1c-0.2,0-0.5-0.1-0.6-0.3l-8.2-8.9c-0.2-0.2-0.3-0.4-0.7-0.4H18c-0.7,0-1.2,0.8-1.2,1.7v2.4
			c0,0.5-0.4,0.9-0.9,0.9s-0.9-0.4-0.9-0.9v-2.4c0-1.9,1.3-3.4,2.9-3.4h12.7c0.9,0,1.6,0.4,2.1,1.1l8.1,8.8c0.3,0.3,0.3,0.9,0,1.2
			C40.7,36,40.5,36.1,40.3,36.1z"/>
		<path class="st1" d="M40.3,31.3H55c0.6-0.6,1.2-1.2,1.9-1.7H40.3c-0.5,0-0.9,0.4-0.9,0.9S39.8,31.3,40.3,31.3z"/>
		<path class="st1" d="M50.4,73.5H13.7c-1.1,0-1.9-1-1.9-2.2V33.5c0-1.3,0.8-2.2,1.9-2.2H16c0.5,0,0.9-0.4,0.9-0.9s-0.4-0.9-0.9-0.9
			h-2.2c-2,0-3.6,1.7-3.6,3.9v37.7c0,2.2,1.6,3.9,3.6,3.9h37.9C51.2,74.7,50.7,74.1,50.4,73.5z"/>
		<path class="st1" d="M51.8,34.4H40.3c-0.5,0-0.9,0.4-0.9,0.9c0,0.5,0.4,0.9,0.9,0.9h9.8C50.6,35.5,51.2,35,51.8,34.4z"/>
	</g>
</g>
</svg>
