<svg xmlns="http://www.w3.org/2000/svg" width="97.39" height="65.951" viewBox="0 0 97.39 65.951">
  <g id="Groupe_1959" data-name="Groupe 1959" transform="translate(1.768 1.25)">
    <g id="Groupe_1855" data-name="Groupe 1855" transform="translate(0 0)">
      <g id="Group_1452" data-name="Group 1452" transform="translate(21.443)">
        <path id="Path_755" data-name="Path 755" d="M215.007,133.5V123a4.9,4.9,0,0,1,5.038-4.748h5.381" transform="translate(-215.007 -113.044)" fill="none" stroke="#386391" stroke-linejoin="round" stroke-width="2.5"/>
        <path id="Path_756" data-name="Path 756" d="M277.518,118.254H282.9A4.9,4.9,0,0,1,287.936,123v47.8a4.9,4.9,0,0,1-5.036,4.75H220.045a4.9,4.9,0,0,1-5.038-4.75" transform="translate(-215.007 -113.044)" fill="none" stroke="#386391" stroke-linejoin="round" stroke-width="2.5"/>
        <rect id="Rectangle_554" data-name="Rectangle 554" width="5.209" height="10.419" rx="1.42" transform="translate(10.418)" stroke-width="2.5" stroke="#386391" stroke-linecap="round" stroke-linejoin="round" fill="none"/>
        <rect id="Rectangle_555" data-name="Rectangle 555" width="5.209" height="10.419" rx="1.42" transform="translate(57.302)" stroke-width="2.5" stroke="#386391" stroke-linecap="round" stroke-linejoin="round" fill="none"/>
        <line id="Line_43" data-name="Line 43" x2="67.069" transform="translate(5.861 20.837)" fill="none" stroke="#386391" stroke-linejoin="round" stroke-width="2.5"/>
        <rect id="Rectangle_556" data-name="Rectangle 556" width="15.628" height="15.628" rx="1.252" transform="translate(46.884 31.256)" fill="none" stroke="#386391" stroke-linejoin="round" stroke-width="2.5"/>
        <line id="Line_44" data-name="Line 44" x2="31.255" transform="translate(20.837 5.209)" fill="none" stroke="#386391" stroke-linecap="round" stroke-linejoin="round" stroke-width="2.5"/>
      </g>
      <g id="Groupe_1854" data-name="Groupe 1854" transform="translate(0 25.582)">
        <g id="Group_1456" data-name="Group 1456" transform="translate(0 24.388)">
          <line id="Line_46" data-name="Line 46" y1="12.963" x2="12.963" stroke-width="2.5" stroke="#308fff" stroke-linecap="round" stroke-linejoin="round" fill="none"/>
        </g>
        <ellipse id="Ellipse_62" data-name="Ellipse 62" cx="13.749" cy="13.749" rx="13.749" ry="13.749" transform="translate(9.468)" fill="none" stroke="#308fff" stroke-linecap="round" stroke-linejoin="round" stroke-width="2.5"/>
      </g>
    </g>
  </g>
</svg>
