<svg xmlns="http://www.w3.org/2000/svg" width="88.867" height="80.882" viewBox="0 0 88.867 80.882">
  <g id="Groupe_1976" data-name="Groupe 1976" transform="translate(-520.395 -236.689)">
    <path id="Tracé_982" data-name="Tracé 982" d="M543.059,250.829A17.782,17.782,0,0,1,573.414,263.4" transform="translate(18.378 6.591)" fill="none" stroke="#386391" stroke-linecap="round" stroke-linejoin="round" stroke-width="2.5"/>
    <path id="Tracé_983" data-name="Tracé 983" d="M546.873,256.514H580.08v9.528" transform="translate(21.652 15.94)" fill="none" stroke="#386391" stroke-linecap="round" stroke-linejoin="round" stroke-width="2.5"/>
    <path id="Tracé_984" data-name="Tracé 984" d="M547.895,264.195h37.589v21.7" transform="translate(22.528 22.532)" fill="none" stroke="#386391" stroke-linecap="round" stroke-linejoin="round" stroke-width="2.5"/>
    <path id="Tracé_985" data-name="Tracé 985" d="M550.214,247.915l11.7-4.732-11.7-4.732" transform="translate(24.518 0.438)" fill="none" stroke="#386391" stroke-linecap="round" stroke-linejoin="round" stroke-width="2.5"/>
    <line id="Ligne_437" data-name="Ligne 437" y2="14.154" transform="translate(574.011 237.939)" fill="none" stroke="#386391" stroke-linecap="round" stroke-linejoin="round" stroke-width="2.5"/>
    <g id="Groupe_1973" data-name="Groupe 1973" transform="translate(573.567 275.445)">
      <line id="Ligne_438" data-name="Ligne 438" y2="5.39" stroke-width="2.5" stroke="#386391" stroke-linecap="round" stroke-linejoin="round" fill="none"/>
      <line id="Ligne_439" data-name="Ligne 439" y2="5.39" transform="translate(8.896)" fill="none" stroke="#386391" stroke-linecap="round" stroke-linejoin="round" stroke-width="2.5"/>
      <line id="Ligne_440" data-name="Ligne 440" y2="5.39" transform="translate(17.791)" fill="none" stroke="#386391" stroke-linecap="round" stroke-linejoin="round" stroke-width="2.5"/>
    </g>
    <g id="Groupe_1974" data-name="Groupe 1974" transform="translate(521.644 266.326)">
      <path id="Tracé_986" data-name="Tracé 986" d="M521.644,269.88v29.231a4.1,4.1,0,0,0,4.1,4.1h33.462a4.1,4.1,0,0,0,4.1-4.1v-41.8a4.1,4.1,0,0,0-4.1-4.1h-20.9Z" transform="translate(-521.644 -253.216)" fill="none" stroke="#3792fd" stroke-linecap="round" stroke-linejoin="round" stroke-width="2.5"/>
      <path id="Tracé_987" data-name="Tracé 987" d="M521.644,269.88h12.565a4.1,4.1,0,0,0,4.1-4.1V253.216" transform="translate(-521.644 -253.216)" fill="none" stroke="#3792fd" stroke-linecap="round" stroke-linejoin="round" stroke-width="2.5"/>
    </g>
    <g id="Groupe_1975" data-name="Groupe 1975" transform="translate(532.864 282.89)">
      <line id="Ligne_441" data-name="Ligne 441" x2="25.155" transform="translate(0 10.535)" fill="none" stroke="#308fff" stroke-linecap="round" stroke-linejoin="round" stroke-width="2.5"/>
      <line id="Ligne_442" data-name="Ligne 442" x2="15.261" transform="translate(0 15.802)" fill="none" stroke="#308fff" stroke-linecap="round" stroke-linejoin="round" stroke-width="2.5"/>
      <line id="Ligne_443" data-name="Ligne 443" x2="25.155" transform="translate(0 5.267)" fill="none" stroke="#308fff" stroke-linecap="round" stroke-linejoin="round" stroke-width="2.5"/>
      <line id="Ligne_444" data-name="Ligne 444" x1="15.802" transform="translate(9.353)" fill="none" stroke="#308fff" stroke-linecap="round" stroke-linejoin="round" stroke-width="2.5"/>
    </g>
    <path id="Tracé_988" data-name="Tracé 988" d="M547.81,280.541V270.432h9.018v10.109" transform="translate(22.456 27.885)" fill="none" stroke="#386391" stroke-linecap="round" stroke-linejoin="round" stroke-width="2.5"/>
    <path id="Tracé_989" data-name="Tracé 989" d="M557.439,280.541V270.432h8.96v10.109" transform="translate(30.719 27.885)" fill="none" stroke="#386391" stroke-linecap="round" stroke-linejoin="round" stroke-width="2.5"/>
    <line id="Ligne_445" data-name="Ligne 445" x2="37.006" transform="translate(570.897 291.347)" fill="none" stroke="#386391" stroke-linecap="round" stroke-linejoin="round" stroke-width="2.5"/>
  </g>
</svg>
