<?xml version="1.0" encoding="utf-8"?>
<!-- Generator: Adobe Illustrator 23.0.4, SVG Export Plug-In . SVG Version: 6.00 Build 0)  -->
<svg version="1.1" id="Calque_1" xmlns="http://www.w3.org/2000/svg" xmlns:xlink="http://www.w3.org/1999/xlink" x="0px" y="0px"
	 viewBox="0 0 100 100" style="enable-background:new 0 0 100 100;" xml:space="preserve">
<style type="text/css">
	.st0{fill:#3792FD;}
	.st1{fill:#19568E;}
	.st2{fill:#FFFFFF;}
</style>
<g>
	<g>
		<path class="st1" d="M73,50.1c-0.4,0-0.8-0.4-0.8-0.8v-3.6H29.3v3.6c0,0.4-0.4,0.8-0.8,0.8c-0.4,0-0.8-0.4-0.8-0.8V45
			c0-0.4,0.4-0.8,0.8-0.8H73c0.4,0,0.8,0.4,0.8,0.8v4.4C73.7,49.8,73.4,50.1,73,50.1z"/>
		<g>
			<g>
				<g>
					<path class="st1" d="M40.9,80.9c-0.4,0-0.8-0.3-0.8-0.8v-4.1c0-2.9-1.3-5.5-3.6-7.2c-0.3-0.2-0.4-0.7-0.2-1.1
						c0.3-0.3,0.7-0.4,1.1-0.2c2.7,2,4.2,5,4.2,8.4v4.1C41.7,80.6,41.3,80.9,40.9,80.9z"/>
					<path class="st1" d="M20.6,80.9c-0.4,0-0.8-0.3-0.8-0.8v-4.1c0-3.4,1.6-6.5,4.4-8.4c0.3-0.2,0.8-0.2,1.1,0.2
						c0.2,0.3,0.2,0.8-0.2,1.1c-2.4,1.6-3.7,4.3-3.7,7.2v4.1C21.3,80.6,21,80.9,20.6,80.9z"/>
				</g>
				<path class="st1" d="M30.7,68.4c-3.9,0-7.1-3.2-7.1-7.1c0-3.9,3.2-7.1,7.1-7.1c3.9,0,7.1,3.2,7.1,7.1
					C37.8,65.2,34.7,68.4,30.7,68.4z M30.7,55.5c-3.1,0-5.7,2.6-5.7,5.7c0,3.1,2.6,5.7,5.7,5.7c3.1,0,5.7-2.6,5.7-5.7
					C36.4,58.1,33.9,55.5,30.7,55.5z"/>
			</g>
			<g>
				<g>
					<path class="st1" d="M61.4,80.9c-0.4,0-0.8-0.3-0.8-0.8v-4.1c0-2.9-1.3-5.5-3.6-7.2c-0.3-0.2-0.4-0.7-0.2-1.1
						c0.3-0.3,0.7-0.4,1.1-0.2c2.7,2,4.2,5,4.2,8.4v4.1C62.1,80.6,61.8,80.9,61.4,80.9z"/>
					<path class="st1" d="M41,80.9c-0.4,0-0.8-0.3-0.8-0.8v-4.1c0-3.4,1.6-6.5,4.4-8.4c0.3-0.2,0.8-0.1,1.1,0.2
						c0.2,0.3,0.1,0.8-0.2,1.1c-2.4,1.6-3.7,4.3-3.7,7.2v4.1C41.8,80.6,41.5,80.9,41,80.9z"/>
				</g>
				<path class="st1" d="M51.2,68.4c-3.9,0-7.1-3.2-7.1-7.1c0-3.9,3.2-7.1,7.1-7.1s7.1,3.2,7.1,7.1C58.3,65.2,55.1,68.4,51.2,68.4z
					 M51.2,55.5c-3.1,0-5.7,2.6-5.7,5.7c0,3.1,2.6,5.7,5.7,5.7s5.7-2.6,5.7-5.7C56.9,58.1,54.4,55.5,51.2,55.5z"/>
			</g>
			<g>
				<g>
					<path class="st1" d="M81.7,80.9c-0.4,0-0.8-0.3-0.8-0.8v-4.1c0-2.9-1.3-5.5-3.6-7.2c-0.3-0.2-0.4-0.7-0.2-1.1
						c0.3-0.3,0.7-0.4,1.1-0.2c2.7,2,4.2,5,4.2,8.4v4.1C82.5,80.6,82.1,80.9,81.7,80.9z"/>
					<path class="st1" d="M61.4,80.9c-0.4,0-0.8-0.3-0.8-0.8v-4.1c0-3.4,1.6-6.5,4.4-8.4c0.3-0.2,0.8-0.1,1.1,0.2
						c0.2,0.3,0.1,0.8-0.2,1.1c-2.4,1.6-3.7,4.3-3.7,7.2v4.1C62.1,80.6,61.8,80.9,61.4,80.9z"/>
				</g>
				<path class="st1" d="M71.5,68.4c-3.9,0-7.1-3.2-7.1-7.1c0-3.9,3.2-7.1,7.1-7.1c3.9,0,7.1,3.2,7.1,7.1
					C78.7,65.2,75.5,68.4,71.5,68.4z M71.5,55.5c-3.1,0-5.7,2.6-5.7,5.7c0,3.1,2.6,5.7,5.7,5.7s5.7-2.6,5.7-5.7
					C77.2,58.1,74.7,55.5,71.5,55.5z"/>
			</g>
		</g>
		<g>
			<g>
				<path class="st1" d="M61.4,45.7c-0.4,0-0.8-0.3-0.8-0.8v-3.9c0-2.9-1.3-5.5-3.6-7.2c-0.3-0.2-0.4-0.7-0.2-1.1
					c0.3-0.3,0.7-0.4,1.1-0.2c2.7,2,4.2,5,4.2,8.4V45C62.1,45.4,61.8,45.7,61.4,45.7z"/>
				<path class="st1" d="M41,45.7c-0.4,0-0.8-0.3-0.8-0.8v-3.9c0-3.4,1.6-6.5,4.4-8.4c0.3-0.2,0.8-0.2,1.1,0.2
					c0.2,0.3,0.2,0.8-0.2,1.1c-2.4,1.6-3.7,4.3-3.7,7.2V45C41.8,45.4,41.5,45.7,41,45.7z"/>
			</g>
			<path class="st1" d="M51.2,33.3c-3.9,0-7.1-3.2-7.1-7.1c0-3.9,3.2-7.1,7.1-7.1s7.1,3.2,7.1,7.1C58.3,30.1,55.1,33.3,51.2,33.3z
				 M51.2,20.5c-3.1,0-5.7,2.6-5.7,5.7c0,3.1,2.6,5.7,5.7,5.7s5.7-2.6,5.7-5.7C56.9,23.1,54.4,20.5,51.2,20.5z"/>
		</g>
	</g>
	<g>
		<circle class="st2" cx="31.7" cy="38.2" r="15.6"/>
		<path class="st0" d="M32.1,25.7c-6.9,0-12.6,5.6-12.6,12.6c0,2.9,1,5.5,2.6,7.6l-8.6,7.8l1.6,1.7l8.6-7.8c2.2,2,5.2,3.2,8.4,3.2
			c6.9,0,12.6-5.6,12.6-12.6C44.7,31.4,39.1,25.7,32.1,25.7z M32.1,48.6c-5.6,0-10.2-4.6-10.2-10.2c0-5.6,4.6-10.2,10.2-10.2
			c5.6,0,10.2,4.6,10.2,10.2C42.4,44,37.8,48.6,32.1,48.6z"/>
	</g>
</g>
</svg>
